{
	"AWS_REGION": "eu-west-1",
	"AWS_S3_ACCESS_KEY": "ENC[AES256_GCM,data:+raI+N+53xVB1zGt7ffVBj+DkTE=,iv:9HmcDHGXu+KBFr4QnAccDcBBN8v/9wplT9o22Aw7mGA=,tag:mtVDcw9o5g1yuZdLedNNlw==,type:str]",
	"AWS_S3_BUCKET": "ENC[AES256_GCM,data:LmReLRU52QVnZapyYSyi6Tyksh9SrdAZKbu5zadyURTpbXBxpeGNZ4I8GHYUBFuRY5vQJRw5lFOb,iv:TfAZM3L3PHLXcXAOaS4+Z/qrQuVgBHrJ4JfBCN2vrKc=,tag:+k1V9630yEVG+w9C4cW4vA==,type:str]",
	"AWS_S3_EDITOR_LIST_CSV_KEY": "ENC[AES256_GCM,data:MMbkkkThua4c9u6rAwCXiXkenES4DBilKAhln1YU1DwOCg==,iv:FyW+nAhtEwuM/e9bHVZUpY/e2hHGJVB9cLaYyRUR2z4=,tag:c2wtmnIs0dlbOAGCjAkWNQ==,type:str]",
	"AWS_S3_EVENT_STORAGE_BUCKET": "ENC[AES256_GCM,data:7cYPGQqmumD+OfPwRBZizT+ySh+AvQllyA==,iv:P4qv1nhadEkuTWm4ctfSRrMNRMQwE/GCaC5vVk2O2r0=,tag:C5Ew/xB/sY6j/YOJkBjtaQ==,type:str]",
	"AWS_S3_SECRET_KEY": "ENC[AES256_GCM,data:7tyv9Ef7LWWQuwZxyYJv3r005FlfNMYW58r31O944eH+GyUPLVafJg==,iv:cW3Uf5aUhYiKhzwWLRzFxrLJzJYv69bvLxfTON1tJxA=,tag:1jTVxKedta3ZmWxTPHzs5w==,type:str]",
	"AWS_SNS_ENDPOINT": "ENC[AES256_GCM,data:MDLdeBzImp64N+B+4XotRGNBRO8XufGCTEI8MPPARlmecDT70r6ti29sZ3+6o3iIbTtz5+Rw3P6Afn/P8NArewdHggVIpu4KOsK4mI9CivideXL01Xdw+c3DjnjAs5/33e1VCadF,iv:dF0UDKrGAziD2G4pa7LoeOAcJaR0Y3lMaZ6CV2Sj53Q=,tag:3XGBiOevvwIWoG+85h4hNQ==,type:str]",
	"AWS_SNS_SQS_ACCESS_KEY": "ENC[AES256_GCM,data:+v80d5L2whL96P/8T4wEfT3bHcY=,iv:7tdgdynvaV2Va3A7m6VHqT435i+e+s9GabJCoN2elW0=,tag:JQvZnohIwDehm6UXLS4+zg==,type:str]",
	"AWS_SNS_SQS_SECRET_KEY": "ENC[AES256_GCM,data:TkqsQgZWuaQGlBQUnZRFPKGrPfR/JfEyUMQo6yn+OstMyctzaYIWqQ==,iv:WusaPCBfApvOJsc7X0HaU5RTebl3m+eoCT9yLGds8Ws=,tag:kQ00+p/+OqbX48bAOxF/lA==,type:str]",
	"AWS_SNS_TOPIC": "env-demo-sales-demosalesv2topic7430E247-1E2AMPAIP7QXE",
	"AWS_SQS_ENDPOINT": "ENC[AES256_GCM,data:cMjQqUHUdZ5ptKXSdF7ETBDqKWofrPXKMw6x+xBAcEAtNW/LMc9jVfHYCcc1oK1LfSZdXaMNUUevkOuDlvv/UldVxS+cdIPZLd9v63KbC6bYsRwKxYrYbvP3TOoSDlHMkssJ8Q==,iv:4RvvsyUKGTNhqpMoxkTuzaQOb17RoFWvR64nSHiPPr0=,tag:F88m1KlwMW7I0LPnr3k3jg==,type:str]",
	"AWS_SQS_QUEUE_NAME": "demo-sales-editor-suggestion-eventbusqueueE0448D18-1NZCSTO05DVK9",
	"DATABASE": "editor_suggestion",
	"DB_HOST": "demo-sales-database.cgj3oe6tse1t.eu-west-1.rds.amazonaws.com",
	"DB_PASSWORD": "ENC[AES256_GCM,data:zkSRodv5Zm7u82MSKHxSc/k9hqeOovIMzHnzbcM/tLs=,iv:1xRPjEPZzHB7K0GofzvbcEV632qTZtJVuCi+e8jmrF4=,tag:zB8dvEaRhFfGo++nCSx86w==,type:str]",
	"DB_USER": "ENC[AES256_GCM,data:72/UE4qGA1U=,iv:6zLMAWxFLWbkJl0w1xR81zZl0mMeUmFU9ZvUu1cwhRc=,tag:PNmXS8gesWC5NMyX6wOYqQ==,type:str]",
	"DH_ENDPOINT": "ENC[AES256_GCM,data:EwtVlWUKui94Nf4LbZtTjJTGkvByqQNmwhtlN5MZg0jN6bdszJMJ,iv:YpzxucOJU8cKOvfcqHcHFkhTeyIOOiFCAyVaz5skqpg=,tag:r6r2pMwFUah1z6WQpVOhYg==,type:str]",
	"DH_PROJECT_LOCATION": "ENC[AES256_GCM,data:Bw==,iv:f9p3VZk/rPDmFjhAhps5OSKCO7vP4l21kr0ZED4DtSg=,tag:chVdVgt2wJkpjk0gFl5NCw==,type:str]",
	"DH_PROJECT_NAME": "ENC[AES256_GCM,data:OZ411bKPLVVnqFSQPoo9,iv:NhYcFUM8xd/DiWwiIqxNxXN5apZi6EVqWf+LzRcCfmU=,tag:f+HftlufOo9WBC3wL+p0Kw==,type:str]",
	"DH_PROJECT_PASS": "ENC[AES256_GCM,data:0APTQDvM2SNJDgIL,iv:iw0sw08CLqfqNHaHIp/CvQkOU/oJJCFPod1zhng+NsQ=,tag:fdxnlMY3tDg6W/XBbgvE9Q==,type:str]",
	"DH_PROJECT_USER": "ENC[AES256_GCM,data:1UDDlioKwHcakwo=,iv:jROVPKGfX60Nc6FSUuopXRwefT+H29eS0XqezAjtX3k=,tag:CZpu/1WZxhh48g15l/SjnA==,type:str]",
	"EVENT_NAMESPACE": "pen",
	"KEYCLOAK_CERTIFICATES": "ENC[AES256_GCM,data:GzHvBkqPwQm0NnHR3AfJGRpZh/fc1TuL+ATesqM98x+3aB5ZtOw9f/OajgZrzt7Ehf8xeO7HUhZgzoiJppJM4gXl1Arsf2c60l+7FhRE2A==,iv:6q0obCuVEnWWQWPlEWyjbiNg+D3dyMPbsBn5T9S7IcA=,tag:zw7a5BISUJTsGdSz098G1A==,type:str]",
	"PHENOM_LARGE_EVENTS_BUCKET": "env-demo-sales-largeeventsbucket968f8f2a-1b8dg3zhm50tm",
	"PHENOM_LARGE_EVENTS_PREFIX": "",
	"PUBLISHER_NAME": "hindawi",
	"SSO_CLIENT_ID": "ENC[AES256_GCM,data:lvmSgEC4,iv:YdcP2nxX0Au9lfr9gMSi+8Vt8iQQVu0lYgvVyb7/E2c=,tag:XymJPu26PUaFcI8Xqsq0Ng==,type:str]",
	"WOS_ELASTICSEARCH_INDEX": "wos-index-demo",
	"WOS_ELASTICSEARCH_NODE": "https://search-wos-index-qa-v56s6vssjuts7hxzolqbfo22ki.eu-west-1.es.amazonaws.com/",
	"WOS_ELASTICSEARCH_PASSWORD": "ENC[AES256_GCM,data:5j3O+u4GFpoCAA==,iv:zHEPFI2zBT7+XSZM7oYg48dyD9x5I4oC4dwxKIEhc3Y=,tag:+RUPGAjrMV5ljQxwrLWzZw==,type:str]",
	"WOS_ELASTICSEARCH_USERNAME": "ENC[AES256_GCM,data:SotbALC45klb188WeA==,iv:tsIx44hbf7YPqSQ0vzJbRZ9xb+SIVMD6/OMnLj65OJk=,tag:sX5EwSi1grVjFUlynfYE2Q==,type:str]",
	"SCHEMA_REGISTRY_URL": "ENC[AES256_GCM,data:TlBCt+x3wzIlaByWQAO/ez86wH9bV/DheyEkBLBL,iv:vCjq7aOuDSf6mnwdB8sOs83HlKezfv95e7A5Td4hUYs=,tag:RDcdXfxnXbevRFWkvdViPg==,type:str]",
	"SERVICE_SCHEMA_URL": "ENC[AES256_GCM,data:z4QXCWBnycDJGAzr3MfltA0OWrd7zortLnYUDb/yXgrWQWZeZ7WnrEJrFslhRhhETxNsAiCTnYPjZTOj4822,iv:WdtoZzE6+FdUPQC/ocqlatcRQ2ii776N3+pFdRM1r6Q=,tag:IgDlLqjB2bO9F4DUlV9r2w==,type:str]",
	"sops": {
		"kms": [
			{
				"arn": "arn:aws:kms:eu-west-1:916437579680:key/1fbe0a96-3785-42f6-856f-81e56bb9131b",
				"created_at": "2023-01-05T15:29:32Z",
				"enc": "AQICAHhZUaVA8W191Vg6SiBY8cFqIj4mGQYPyNXgHpN4hr8BTQGcqIzl/qFSYXQqrpumsfrBAAAAfjB8BgkqhkiG9w0BBwagbzBtAgEAMGgGCSqGSIb3DQEHATAeBglghkgBZQMEAS4wEQQM4WMg+S46gxz3NNyIAgEQgDtTtpJ7PoNy851UD8v67cK7/Q75iaVmRWnws+f7++zYM045og5xbADBVrNY/bRFx1ntr4MyaERMB9OlZQ==",
				"aws_profile": ""
			}
		],
		"gcp_kms": null,
		"azure_kv": null,
		"hc_vault": null,
		"age": null,
		"lastmodified": "2023-01-17T13:00:58Z",
		"mac": "ENC[AES256_GCM,data:hChA82ZG9sZn+A9DJIdrwwp8bAsXOddUxEjhaYXnkAS4wKxCiI0kjZ0X9na9zBWpfbG0TFLnOqFZcZFd9vIfOIyJEewOWjBP6bPf61c1JqFke4OwkHeziG2t06hcoK4zFoEXkC/EF3e5K31Kb10IL+IWGaOyasXs1H+Tb68MjR0=,iv:SD40g0OOB9jQdtN08+3BRqRdvymoQb/sNggKY0wg1GU=,tag:Fii5MUmmXQwT/yshVqG+PQ==,type:str]",
		"pgp": null,
		"unencrypted_regex": "^(AWS_REGION|AWS_SNS_TOPIC|AWS_SQS_QUEUE_NAME|DATABASE|DB_HOST|EVENT_NAMESPACE|PHENOM_LARGE_EVENTS_BUCKET|PHENOM_LARGE_EVENTS_PREFIX|PUBLISHER_NAME|WOS_ELASTICSEARCH_INDEX|WOS_ELASTICSEARCH_NODE|EDITOR_LIST_CHUNK_LIMIT)$",
		"version": "3.7.3"
	}
}