{
	"AWS_REGION": "eu-west-1",
	"AWS_S3_ACCESS_KEY": "ENC[AES256_GCM,data:0KT+8sHd2vkFfohCRmjzH6KENyE=,iv:Wm/Bll05h5fZDqU6sDzji3zqp887oI/SKCoUayMJ4/o=,tag:QWWTMTqGEh4kYYyOXpMqeQ==,type:str]",
	"AWS_S3_SECRET_KEY": "ENC[AES256_GCM,data:+IojQpZ2f4kcr8zzLCQkKoRiJ0vw6MleQpaa9F6nmUEtkJT5AWoecA==,iv:9C7rTRZqwAJBLs8LieuHgtKtwGLv7lOt4HDSw3Dsmsc=,tag:TrrWyC61hOar74B4JaN1Qg==,type:str]",
	"AWS_SNS_SQS_ACCESS_KEY": "ENC[AES256_GCM,data:l24IKr/oYOHAqfCd7JetgZV1a9A=,iv:WwQqNX0RHnQLor3sXKcNAjELp63NTuKnuVLlhiZArkM=,tag:EmdQwEMstkBRO94PqnhW3Q==,type:str]",
	"AWS_SNS_SQS_SECRET_KEY": "ENC[AES256_GCM,data:1ZwXOVhhMYHlzgVAqBhjtHVU7FtcBPIA+rky4LZ96Ji7jSZXd4NrSg==,iv:OF09nyagnL6GNrefeIB8Juf1B2bJQDr+vYErbzL+d8Q=,tag:GLAMusr2g1zE/AaD8QByYw==,type:str]",
	"AWS_SNS_TOPIC": "env-demo-gsw-demogswtopic88CE572D-O3429TDW5CLA",
	"AWS_SQS_QUEUE_NAME": "demo-gsw-author-verification-eventbusqueueE0448D18-JALND5MAWAR3",
	"DATABASE": "author_verification",
	"DB_HOST": "demo-gsw-author-verification.crznwonwxglm.eu-west-1.rds.amazonaws.com",
	"DB_PASSWORD": "ENC[AES256_GCM,data:gS9ICPhcdMhp8cea,iv:Q7h8IgqZ4f6W+HNpolWH6d24NL/MzJKZCYNKLOHtvqw=,tag:SKjUBwM59PSYdKzSuvVy8Q==,type:str]",
	"DB_USER": "ENC[AES256_GCM,data:H7rheUFNcmvyJUPOPu2ughhtd8cMK4MV,iv:xNE0wGsbxWfMtQJ0UbAiE+VoU3oeRioJEiOss/Ukj1I=,tag:Ee1AjfPyYWhpK81VFKdI7g==,type:str]",
	"EVENT_NAMESPACE": "pen",
	"PHENOM_LARGE_EVENTS_BUCKET": "env-demo-gsw-largeeventsbucket968f8f2a-5r1k0ramohvt",
	"PHENOM_LARGE_EVENTS_PREFIX": "",
	"PUBLISHER_NAME": "gsw",
	"WOS_ELASTICSEARCH_INDEX": "wos-index-demo",
	"WOS_ELASTICSEARCH_NODE": "https://search-wos-index-qa-v56s6vssjuts7hxzolqbfo22ki.eu-west-1.es.amazonaws.com/",
	"WOS_ELASTICSEARCH_PASSWORD": "ENC[AES256_GCM,data:JmjteA40coi3Cw==,iv:ETCZ6leaeP6xJwllggzFKlvbKSRa2LinfgqxnUpFd10=,tag:o4/YaucbdQaBW0FA06WHtw==,type:str]",
	"WOS_ELASTICSEARCH_USERNAME": "ENC[AES256_GCM,data:KA6OhTQi6vfropo02w==,iv:/yWgWqnvenr1QLKtK/n+OIdBf00glaAL/ZPg81KlFhg=,tag:+ltC1g3LHTZ0GYDVBSAnAg==,type:str]",
	"sops": {
		"kms": [
			{
				"arn": "arn:aws:kms:eu-west-1:916437579680:key/1fbe0a96-3785-42f6-856f-81e56bb9131b",
				"created_at": "2022-06-14T09:48:03Z",
				"enc": "AQICAHhZUaVA8W191Vg6SiBY8cFqIj4mGQYPyNXgHpN4hr8BTQFTJLITn89dJe0lGhwcBtfLAAAAfjB8BgkqhkiG9w0BBwagbzBtAgEAMGgGCSqGSIb3DQEHATAeBglghkgBZQMEAS4wEQQMsOQ0nMBHgQOtSPgkAgEQgDv34+ixGU7K4w06JtnoLD28rDPhSnmqAGMlQmKRa8/8WJM1ws1y0ZQlg/M2LamExtoW0eG+dPFUuSsHog==",
				"aws_profile": ""
			}
		],
		"gcp_kms": null,
		"azure_kv": null,
		"hc_vault": null,
		"age": null,
		"lastmodified": "2023-01-17T12:51:32Z",
		"mac": "ENC[AES256_GCM,data:htfEWwYhXZWUn/nDJN8U8ZK1J5zANDi0JpigEaPhh2PIZe4NZgt3UHT+5aMdVGZOW3oiJkJjeQmOKYd8Wj+DV6qFdriUnbh1x6qW+SPDW24iCaZCtghZNtvD6bZdPs0pypAa2WO7INfbmScs8AAwlUEAOslW9cHukOkKBh6v0q8=,iv:MeCINP4JDAetsvKeM8f9PltMatJ9RAxpDumxvhDO3TE=,tag:V3PHcdD00Wv5yd777Q+wnw==,type:str]",
		"pgp": null,
		"unencrypted_regex": "^(AWS_REGION|AWS_SNS_TOPIC|AWS_SQS_QUEUE_NAME|DATABASE|DB_HOST|EVENT_NAMESPACE|PHENOM_LARGE_EVENTS_BUCKET|PHENOM_LARGE_EVENTS_PREFIX|PUBLISHER_NAME|WOS_ELASTICSEARCH_INDEX|WOS_ELASTICSEARCH_NODE)$",
		"version": "3.7.3"
	}
}